INDEX VERSION 1.130+E:\workspace\master\javadatastrucuture\.metadata\.plugins\org.eclipse.jdt.core
2422384113.index
3759137899.index
1775960722.index
3662018252.index
2980464823.index
632330033.index
2618649741.index
3056432363.index
1966366891.index
1399325494.index
89226465.index
2852534563.index
3084487225.index
3120192637.index
32929860.index
3645651513.index
4220876446.index
1284281616.index
2814201104.index
